Nonlinear Mixed Effects Models in Population PK/PD, Extra Support Functions • nlmixr2extra
…
#>        Shrink(SD)%
#> tka        -5.46% 
#> tcl        0.387% 
#> tv          13.8% 
#> add.sd            
#>  
#>   Covariance Type (fit$covMethod): boot5
#>     other calculated covs (setCov()): linFim
#>   No correlations in between subject variability (BSV) matrix
#>   Full BSV covariance (fit$omega) or correlation (fit$omegaR; diagonals=SDs) 
#>   Distribution stats (mean/skewness/kurtosis/p-value) available in fit$shrink 
#>   Censoring (fit$censInformation): No censoring
#> 
#> ── Fit Data (object fit is a modified tibble): ──
#> # A tibble: 132 × 19
#>   ID     TIME    DV  PRED    RES IPRED   IRES  IWRES eta.ka eta.cl   eta.v    cp
#>   <fct> <dbl> <dbl> <dbl>  <dbl> <dbl>  <dbl>  <dbl>  <dbl>  <dbl>   <dbl> <dbl>
#> 1 1      0     0.74  0     0.74   0     0.74   1.06   0.143 -0.439 -0.0982  0   
#> 2 1      0.25  2.84  3.27 -0.430  4.06 -1.22  -1.75   0.143 -0.439 -0.0982  4.06
#> 3 1      0.57  6.57  5.85  0.721  7.08 -0.508 -0.731  0.143 -0.439 -0.0982  7.08
#> # … with 129 more rows, and 7 more variables: depot <dbl>, center <dbl>,
#> #   ka <dbl>, cl <dbl>, v <dbl>, tad <dbl>, dosenum <dbl>
…
