A simple formula-based interface for nlmixr2 — nlmixrFormula • nlmixr2extra
…
#>   No correlations in between subject variability (BSV) matrix
#>   Full BSV covariance (value$omega) 
#>     or correlation (value$omegaR; diagonals=SDs)
#>   Distribution stats (mean/skewness/kurtosis/p-value) available in value$shrink 
#>   Information about run found (value$runInfo):
#>    • gradient problems with initial estimate and covariance; see $scaleInfo 
#>    • last objective function was not at minimum, possible problems in optimization 
#>    • ETAs were reset to zero during optimization; (Can control by foceiControl(resetEtaP=.)) 
#>    • initial ETAs were nudged; (can control by foceiControl(etaNudge=., etaNudge2=)) 
#>   Censoring (value$censInformation): No censoring
#>   Minimization message (value$message):  
#>     relative convergence (4) 
#> 
#> ── Fit Data (object value is a modified tibble): ──
#> # A tibble: 84 × 14
#>   ID     TIME    DV  PRED    RES   WRES IPRED   IRES  IWRES CPRED   CRES  CWRES
#>   <fct> <dbl> <dbl> <dbl>  <dbl>  <dbl> <dbl>  <dbl>  <dbl> <dbl>  <dbl>  <dbl>
#> 1 301       1  4.51  3.70  0.807  1.05   3.90  0.611  0.838  3.70  0.807  1.05 
#> 2 301       2 10.9  11.1  -0.187 -0.226 11.4  -0.501 -0.687 11.1  -0.187 -0.226
#> 3 301       3 28.7  27.2   1.51   1.48  27.8   0.942  1.29  27.2   1.51   1.48 
#> # ℹ 81 more rows
#> # ℹ 2 more variables: AsymRe <dbl>, age <dbl>
…
